scratch_QP/spmv_csc_compiled_versions/spmv_csc_2PEs_final_DDR_Ports_ILA/iladata.vcd
$date
        2026-Apr-22 17:23:19
$end
$version
        Vivado v2024.2 (64-bit)
$end
$timescale
        1ps
$end
$scope module dut $end
$var reg 1 " design_1_i/spmv_csc_0_m_axi_gmem0_ARREADY $end
$var reg 1 # design_1_i/spmv_csc_0_m_axi_gmem0_ARVALID $end
$var reg 1 $ design_1_i/spmv_csc_0_m_axi_gmem0_RREADY $end
$var reg 1 % design_1_i/spmv_csc_0_m_axi_gmem0_RVALID $end
$var reg 1 & design_1_i/spmv_csc_0_m_axi_gmem1_ARREADY $end
$var reg 1 ' design_1_i/spmv_csc_0_m_axi_gmem1_ARVALID $end
$var reg 1 ( design_1_i/spmv_csc_0_m_axi_gmem1_RREADY $end
$var reg 1 ) design_1_i/spmv_csc_0_m_axi_gmem1_RVALID $end
$var reg 1 * design_1_i/spmv_csc_0_m_axi_gmem2_ARREADY $end
$var reg 1 + design_1_i/spmv_csc_0_m_axi_gmem2_ARVALID $end
$var reg 1 , design_1_i/spmv_csc_0_m_axi_gmem2_RREADY $end
$var reg 1 - design_1_i/spmv_csc_0_m_axi_gmem2_RVALID $end
$var reg 1 . design_1_i/spmv_csc_0_m_axi_gmem3_ARREADY $end
$var reg 1 / design_1_i/spmv_csc_0_m_axi_gmem3_ARVALID $end
$var reg 1 0 design_1_i/spmv_csc_0_m_axi_gmem3_RREADY $end
$var reg 1 1 design_1_i/spmv_csc_0_m_axi_gmem3_RVALID $end
$var reg 1 2 design_1_i/spmv_csc_0_m_axi_gmem4_AWREADY $end
$var reg 1 3 design_1_i/spmv_csc_0_m_axi_gmem4_AWVALID $end
$var reg 1 4 design_1_i/spmv_csc_0_m_axi_gmem4_WREADY $end
$var reg 1 5 design_1_i/spmv_csc_0_m_axi_gmem4_WVALID $end
$var reg 1 6 _TRIGGER $end
$var reg 1 7 _WINDOW $end
$var reg 1 8 _GAP $end
$upscope $end
$enddefinitions $end
#0
$dumpvars
1"
0#
1$
0%
1&
0'
1(
0)
1*
0+
1,
0-
1.
0/
10
01
12
03
14
05
06
17
08
$end
#5000
1'
1/
16
#5001
1#
1+
#5016
0'
0/
#5017
0#
0+
#5040
11
#5041
01
#5044
1-
#5045
1)
0-
#5046
0)
11
#5048
1-
#5049
0-
#5051
1'
1)
1/
#5052
0'
1-
0/
#5053
0-
#5054
1%
#5055
0%
#5056
1-
#5057
0-
#5058
1%
#5059
0%
#5062
1%
#5063
0%
1-
#5064
0-
#5066
1%
#5067
0%
1-
#5068
0-
#5070
1%
#5071
0%
1-
#5072
1'
0-
#5073
0'
1/
#5074
1%
0/
#5075
0%
1-
#5076
0-
#5078
1%
#5079
0%
1-
#5080
0-
#5082
1%
#5083
0%
1-
#5084
0-
#5086
1%
#5087
0%
1-
#5088
1'
0-
#5089
0'
1/
#5090
1%
0/
#5091
0%
1-
#5092
0-
#5094
1%
#5095
0%
1-
#5096
0-
#5098
1%
#5099
0%
1-
#5100
0-
#5102
1%
#5103
0%
1-
#5104
1'
0-
#5105
0'
1/
#5106
1%
0/
#5107
0%
1-
#5108
0-
#5110
1%
#5111
0%
1-
#5112
0-
#5114
1%
#5115
0%
1-
#5116
0-
#5118
1%
#5119
0%
1-
#5120
1#
1'
1+
0-
#5121
0#
0'
0+
1/
#5122
1%
0/
#5123
0%
1-
#5124
0-
#5126
1%
#5127
0%
1-
#5128
0-
#5130
1%
#5131
0%
1-
#5132
0-
#5134
1%
#5135
0%
1-
#5136
0-
#5138
1%
#5139
0%
1-
#5140
0-
#5142
1%
#5143
0%
1-
#5144
0-
#5146
1%
#5147
0%
1-
#5148
0-
#5150
1%
#5151
0%
1-
#5152
0-
#5154
1%
#5155
0%
1-
#5156
0-
#5158
1%
#5159
0%
1-
#5160
0-
#5162
1%
#5163
0%
1-
#5164
0-
#5166
1%
#5167
0%
1-
#5168
0-
#5170
1%
#5171
0%
1-
#5172
0-
#5174
1%
#5175
0%
1-
#5176
0-
#5178
1%
#5179
0%
1-
#5180
0-
#5182
1%
#5183
0%
1-
#5184
1#
1+
0-
#5185
0#
0+
#5186
1%
#5187
0%
1-
#5188
0-
#5190
1%
#5191
0%
1-
#5192
0-
#5194
1%
#5195
0%
1-
#5196
0-
#5198
1%
#5199
0%
1-
#5200
0-
#5202
1%
#5203
0%
1-
#5204
0-
#5206
1%
#5207
0%
1-
#5208
0-
#5210
1%
#5211
0%
1-
#5212
0-
#5214
1%
#5215
0%
1-
#5216
0-
#5218
1%
#5219
0%
1-
#5220
0-
#5222
1%
#5223
0%
1-
#5224
0-
#5226
1%
#5227
0%
1-
#5228
0-
#5230
1%
#5231
0%
1-
#5232
0-
#5234
1%
#5235
0%
1-
#5236
0-
#5238
1%
#5239
0%
1-
#5240
0-
#5242
1%
#5243
0%
1-
#5244
0-
#5246
1%
#5247
0%
1-
#5248
1#
1+
0-
#5249
0#
0+
#5250
1%
#5251
0%
1-
#5252
0-
#5254
1%
#5255
0%
1-
#5256
0-
#5258
1%
#5259
0%
1-
#5260
0-
#5262
1%
#5263
0%
1-
#5264
0-
#5266
1%
#5267
0%
1-
#5268
0-
#5270
1%
#5271
0%
1-
#5272
0-
#5274
1%
#5275
0%
1-
#5276
0-
#5278
1%
#5279
0%
1-
#5280
0-
#5282
1%
#5283
0%
1-
#5284
0-
#5286
1%
#5287
0%
1-
#5288
0-
#5290
1%
#5291
0%
1-
#5292
0-
#5294
1%
#5295
0%
1-
#5296
0-
#5298
1%
#5299
0%
1-
#5300
0-
#5302
1%
#5303
0%
1-
#5304
0-
#5306
1%
#5307
0%
1-
#5308
0-
#5310
1%
#5311
0%
1-
#5312
1#
1+
0-
#5313
0#
0+
#5314
1%
#5315
0%
1-
#5316
0-
#5318
1%
#5319
0%
1-
#5320
0-
#5322
1%
#5323
0%
1-
#5324
0-
#5326
1%
#5327
0%
1-
#5328
0-
#5330
1%
#5331
0%
1-
#5332
0-
#5334
1%
#5335
0%
1-
#5336
0-
#5338
1%
#5339
0%
1-
#5340
0-
#5342
1%
#5343
0%
1-
#5344
0-
#5346
1%
#5347
0%
1-
#5348
0-
#5350
1%
#5351
0%
1-
#5352
0-
#5354
1%
#5355
0%
1-
#5356
0-
#5358
1%
#5359
0%
1-
#5360
0-
#5362
1%
#5363
0%
1-
#5364
0-
#5366
1%
01
#5367
0%
1-
#5368
0-
#5370
1%
#5371
0%
0)
1-
#5372
0-
#5374
1%
#5375
0%
1-
#5376
1#
1+
0-
#5377
0#
0+
#5378
1%
#5379
0%
1-
#5380
0-
#5382
1%
#5383
0%
1-
#5384
0-
#5386
1%
#5387
0%
1-
#5388
0-
#5390
1%
#5391
0%
1-
#5392
0-
#5394
1%
#5395
0%
1-
#5396
0-
#5398
1%
#5399
0%
1-
#5400
0-
#5402
1%
#5403
0%
1-
#5404
1'
0-
#5405
0'
#5406
1%
#5407
0%
1-
#5408
0-
#5410
1%
#5411
0%
1-
#5412
0-
#5414
1%
#5415
0%
1-
#5416
0-
#5418
1%
#5419
0%
1-
#5420
0-
#5422
1%
#5423
0%
1-
#5424
0-
1/
#5425
0/
#5426
1%
#5427
0%
1-
#5428
0-
#5430
1%
#5431
0%
1-
#5432
0-
#5434
1%
#5435
0%
1-
#5436
0-
#5438
1%
#5439
0%
1-
#5440
1#
1+
0-
#5441
0#
0+
#5442
1%
#5443
0%
1-
#5444
0-
#5445
1)
#5446
1%
#5447
0%
1-
#5448
0-
#5450
1%
#5451
0%
1-
#5452
0-
#5454
1%
#5455
0%
1-
#5456
0-
#5458
1%
#5459
0%
1-
#5460
0-
#5461
0)
#5462
1%
#5463
0%
1-
11
#5464
0-
#5466
1%
#5467
0%
1-
#5468
0-
#5470
1%
#5471
0%
1-
#5472
0-
#5474
1%
#5475
0%
1-
#5476
0-
#5478
1%
#5479
0%
1-
01
#5480
0-
#5482
1%
#5483
0%
1-
#5484
0-
#5486
1%
#5487
0%
1-
#5488
0-
#5490
1%
#5491
0%
1-
#5492
0-
#5494
1%
#5495
0%
1-
#5496
0-
#5498
1%
#5499
0%
1-
#5500
0-
#5502
1%
#5503
0%
1-
#5504
1#
1+
0-
#5505
0#
0+
#5506
1%
#5507
0%
1-
#5508
0-
#5510
1%
#5511
0%
1-
#5512
0-
#5514
1%
#5515
0%
1-
#5516
0-
#5518
1%
#5519
0%
1-
#5520
0-
#5522
1%
#5523
0%
1-
#5524
0-
#5526
1%
#5527
0%
1-
#5528
0-
#5530
1%
#5531
0%
1-
#5532
0-
#5534
1%
#5535
0%
1-
#5536
0-
#5538
1%
#5539
0%
1-
#5540
0-
#5542
1%
#5543
0%
1-
#5544
0-
#5546
1%
#5547
0%
1-
#5548
0-
#5550
1%
#5551
0%
1-
#5552
0-
#5554
1%
#5555
0%
1-
#5556
0-
#5558
1%
#5559
0%
1-
#5560
0-
#5562
1%
#5563
0%
1-
#5564
0-
#5566
1%
#5567
0%
1-
#5568
1#
1+
0-
#5569
0#
0+
#5570
1%
#5571
0%
1-
#5572
0-
#5574
1%
#5575
0%
1-
#5576
0-
#5578
1%
#5579
0%
1-
#5580
0-
#5582
1%
#5583
0%
1-
#5584
0-
#5586
1%
#5587
0%
1-
#5588
0-
#5590
1%
#5591
0%
1-
#5592
0-
#5594
1%
#5595
0%
1-
#5596
0-
#5598
1%
#5599
0%
1-
#5600
0-
#5602
1%
#5603
0%
1-
#5604
0-
#5606
1%
#5607
0%
1-
#5608
0-
#5610
1%
#5611
0%
1-
#5612
0-
#5614
1%
#5615
0%
1-
#5616
0-
#5618
1%
#5619
0%
1-
#5620
0-
#5622
1%
#5623
0%
1-
#5624
0-
#5626
1%
#5627
0%
1-
#5628
0-
#5630
1%
#5631
0%
1-
#5632
1#
1+
0-
#5633
0#
0+
#5634
1%
#5635
0%
1-
#5636
0-
#5638
1%
#5639
0%
1-
#5640
0-
#5642
1%
#5643
0%
1-
#5644
0-
#5646
1%
#5647
0%
1-
#5648
0-
#5650
1%
#5651
0%
1-
#5652
0-
#5654
1%
#5655
0%
1-
#5656
0-
#5658
1%
#5659
0%
1-
#5660
0-
#5662
1%
#5663
0%
1-
#5664
0-
#5666
1%
#5667
0%
1-
#5668
0-
#5670
1%
#5671
0%
1-
#5672
0-
#5674
1%
#5675
0%
1-
#5676
0-
#5678
1%
#5679
0%
1-
#5680
0-
#5682
1%
#5683
0%
1-
#5684
0-
#5686
1%
#5687
0%
1-
#5688
0-
#5690
1%
#5691
0%
1-
#5692
0-
#5694
1%
#5695
0%
1-
#5696
1#
1+
0-
#5697
0#
0+
#5698
1%
#5699
0%
1-
#5700
0-
#5702
1%
#5703
0%
1-
#5704
0-
#5706
1%
#5707
0%
1-
#5708
0-
#5710
1%
#5711
0%
1-
#5712
0-
#5714
1%
#5715
0%
1-
#5716
0-
#5718
1%
#5719
0%
1-
#5720
0-
#5722
1%
#5723
0%
1-
#5724
0-
#5726
1%
#5727
0%
1-
#5728
0-
#5730
1%
#5731
0%
1-
#5732
0-
#5734
1%
#5735
0%
1-
#5736
0-
#5738
1%
#5739
0%
1-
#5740
0-
#5742
1%
#5743
0%
1-
#5744
0-
#5746
1%
#5747
0%
1-
#5748
0-
#5750
1%
#5751
0%
1-
#5752
0-
#5754
1%
#5755
0%
1-
#5756
0-
#5758
1%
#5759
0%
1-
#5760
1#
1+
0-
#5761
0#
0+
#5762
1%
#5763
0%
1-
#5764
0-
#5766
1%
#5767
0%
1-
#5768
0-
#5770
1%
#5771
0%
1-
#5772
0-
#5774
1%
#5775
0%
1-
#5776
0-
#5778
1%
#5779
0%
1-
#5780
0-
#5782
1%
#5783
0%
1-
#5784
0-
#5786
1%
#5787
0%
1-
#5788
0-
#5790
1%
#5791
0%
1-
#5792
0-
#5794
1%
#5795
0%
1-
#5796
0-
#5798
1%
#5799
0%
1-
#5800
0-
#5802
1%
#5803
0%
1-
#5804
1'
0-
#5805
0'
#5806
1%
#5807
0%
1-
#5808
0-
#5810
1%
#5811
0%
1-
#5812
0-
#5814
1%
#5815
0%
1-
#5816
0-
#5818
1%
#5819
0%
1-
#5820
0-
#5822
1%
#5823
0%
1-
#5824
1#
1+
0-
#5825
0#
0+
#5826
1%
#5827
0%
1-
#5828
0-
1/
#5829
0/
#5830
1%
#5831
0%
1-
#5832
0-
#5834
1%
#5835
0%
1-
#5836
0-
#5838
1%
#5839
0%
1-
#5840
0-
#5842
1%
#5843
0%
1-
#5844
0-
#5845
1)
#5846
1%
#5847
0%
1-
#5848
0-
#5850
1%
#5851
0%
1-
#5852
0-
#5854
1%
#5855
0%
1-
#5856
0-
#5858
1%
#5859
0%
1-
#5860
0-
#5861
0)
#5862
1%
#5863
0%
1-
#5864
0-
#5866
1%
11
#5867
0%
1-
#5868
0-
#5870
1%
#5871
0%
1-
#5872
0-
#5874
1%
#5875
0%
1-
#5876
0-
#5878
1%
#5879
0%
1-
#5880
0-
#5882
1%
01
#5883
0%
1-
#5884
0-
#5886
1%
#5887
0%
1-
#5888
1#
1+
0-
#5889
0#
0+
#5890
1%
#5891
0%
1-
#5892
0-
#5894
1%
#5895
0%
1-
#5896
0-
#5898
1%
#5899
0%
1-
#5900
0-
#5902
1%
#5903
0%
1-
#5904
0-
#5906
1%
#5907
0%
1-
#5908
0-
#5910
1%
#5911
0%
1-
#5912
0-
#5914
1%
#5915
0%
1-
#5916
0-
#5918
1%
#5919
0%
1-
#5920
0-
#5922
1%
#5923
0%
1-
#5924
0-
#5926
1%
#5927
0%
1-
#5928
0-
#5930
1%
#5931
0%
1-
#5932
0-
#5934
1%
#5935
0%
1-
#5936
0-
#5938
1%
#5939
0%
1-
#5940
0-
#5942
1%
#5943
0%
1-
#5944
0-
#5946
1%
#5947
0%
1-
#5948
0-
#5950
1%
#5951
0%
1-
#5952
1#
1+
0-
#5953
0#
0+
#5954
1%
#5955
0%
1-
#5956
0-
#5958
1%
#5959
0%
1-
#5960
0-
#5962
1%
#5963
0%
1-
#5964
0-
#5966
1%
#5967
0%
1-
#5968
0-
#5970
1%
#5971
0%
1-
#5972
0-
#5974
1%
#5975
0%
1-
#5976
0-
#5978
1%
#5979
0%
1-
#5980
0-
#5982
1%
#5983
0%
1-
#5984
0-
#5986
1%
#5987
0%
1-
#5988
0-
#5990
1%
#5991
0%
1-
#5992
0-
#5994
1%
#5995
0%
1-
#5996
0-
#5998
1%
#5999
0%
1-
#6000
0-
#6002
1%
#6003
0%
1-
#6004
0-
#6006
1%
#6007
0%
1-
#6008
0-
#6010
1%
#6011
0%
1-
#6012
0-
#6014
1%
#6015
0%
1-
#6016
1#
1+
0-
#6017
0#
0+
#6018
1%
#6019
0%
1-
#6020
0-
#6022
1%
#6023
0%
1-
#6024
0-
#6026
1%
#6027
0%
1-
#6028
0-
#6030
1%
#6031
0%
1-
#6032
0-
#6034
1%
#6035
0%
1-
#6036
0-
#6038
1%
#6039
0%
1-
#6040
0-
#6042
1%
#6043
0%
1-
#6044
0-
#6046
1%
#6047
0%
1-
#6048
0-
#6050
1%
#6051
0%
1-
#6052
0-
#6054
1%
#6055
0%
1-
#6056
0-
#6058
1%
#6059
0%
1-
#6060
0-
#6062
1%
#6063
0%
1-
#6064
0-
#6066
1%
#6067
0%
1-
#6068
0-
#6070
1%
#6071
0%
1-
#6072
0-
#6074
1%
#6075
0%
1-
#6076
0-
#6078
1%
#6079
0%
1-
#6080
1#
1+
0-
#6081
0#
0+
#6082
1%
#6083
0%
1-
#6084
0-
#6086
1%
#6087
0%
1-
#6088
0-
#6090
1%
#6091
0%
1-
#6092
0-
#6094
1%
#6095
0%
1-
#6096
0-
#6098
1%
#6099
0%
1-
#6100
0-
#6102
1%
#6103
0%
1-
#6104
0-
#6106
1%
#6107
0%
1-
#6108
0-
#6110
1%
#6111
0%
1-
#6112
0-
#6114
1%
#6115
0%
1-
#6116
0-
#6118
1%
#6119
0%
1-
#6120
0-
#6122
1%
#6123
0%
1-
#6124
0-
#6126
1%
#6127
0%
1-
#6128
0-
#6130
1%
#6131
0%
1-
#6132
0-
#6134
1%
#6135
0%
1-
#6136
0-
#6138
1%
#6139
0%
1-
#6140
0-
#6142
1%
#6143
0%
1-
#6144
1#
1+
0-
#6145
0#
0+
#6146
1%
#6147
0%
1-
#6148
0-
#6150
1%
#6151
0%
1-
#6152
0-
#6154
1%
#6155
0%
1-
#6156
0-
#6158
1%
#6159
0%
1-
#6160
0-
#6162
1%
#6163
0%
1-
#6164
0-
#6166
1%
#6167
0%
1-
#6168
0-
#6170
1%
#6171
0%
1-
#6172
0-
#6174
1%
#6175
0%
1-
#6176
0-
#6178
1%
#6179
0%
1-
#6180
0-
#6182
1%
#6183
0%
1-
#6184
0-
#6186
1%
#6187
0%
1-
#6188
0-
#6190
1%
#6191
0%
1-
#6192
0-
#6194
1%
#6195
0%
1-
#6196
0-
#6198
1%
#6199
0%
1-
#6200
0-
#6202
1%
#6203
0%
1-
#6204
0-
#6206
1%
#6207
0%
1-
#6208
1#
1+
0-
#6209
0#
0+
#6210
1%
#6211
0%
1-
#6212
0-
#6214
1%
#6215
0%
1-
#6216
0-
#6218
1%
#6219
0%
1-
#6220
1'
0-
#6221
0'
#6222
1%
#6223
0%
1-
#6224
0-
#6226
1%
#6227
0%
1-
#6228
0-
#6230
1%
#6231
0%
1-
#6232
0-
#6234
1%
#6235
0%
1-
#6236
0-
#6238
1%
#6239
0%
1-
#6240
0-
#6242
1%
#6243
0%
1-
#6244
0-
#6246
1%
#6247
0%
1-
#6248
0-
1/
#6249
0/
#6250
1%
#6251
0%
1-
#6252
0-
#6254
1%
#6255
0%
1-
#6256
0-
#6258
1%
#6259
0%
1-
#6260
1)
0-
#6262
1%
#6263
0%
1-
#6264
0-
#6266
1%
#6267
0%
1-
#6268
0-
#6270
1%
#6271
0%
1-
#6272
1#
1+
0-
#6273
0#
0+
#6274
1%
#6275
0%
1-
#6276
0)
0-
#6278
1%
#6279
0%
1-
#6280
0-
#6282
1%
#6283
0%
1-
#6284
0-
#6286
1%
#6287
0%
1-
#6288
0-
11
#6290
1%
#6291
0%
1-
#6292
0-
#6294
1%
#6295
0%
1-
#6296
0-
#6298
1%
#6299
0%
1-
#6300
0-
#6302
1%
#6303
0%
1-
#6304
0-
01
#6306
1%
#6307
0%
1-
#6308
0-
#6310
1%
#6311
0%
1-
#6312
0-
#6314
1%
#6315
0%
1-
#6316
0-
#6318
1%
#6319
0%
1-
#6320
0-
#6322
1%
#6323
0%
1-
#6324
0-
#6326
1%
#6327
0%
1-
#6328
0-
#6330
1%
#6331
0%
1-
#6332
0-
#6334
1%
#6335
0%
1-
#6336
1#
1+
0-
#6337
0#
0+
#6338
1%
#6339
0%
1-
#6340
0-
#6342
1%
#6343
0%
1-
#6344
0-
#6346
1%
#6347
0%
1-
#6348
0-
#6350
1%
#6351
0%
1-
#6352
0-
#6354
1%
#6355
0%
1-
#6356
0-
#6358
1%
#6359
0%
1-
#6360
0-
#6362
1%
#6363
0%
1-
#6364
0-
#6366
1%
#6367
0%
1-
#6368
0-
#6370
1%
#6371
0%
1-
#6372
0-
#6374
1%
#6375
0%
1-
#6376
0-
#6378
1%
#6379
0%
1-
#6380
0-
#6382
1%
#6383
0%
1-
#6384
0-
#6386
1%
#6387
0%
1-
#6388
0-
#6390
1%
#6391
0%
1-
#6392
0-
#6394
1%
#6395
0%
1-
#6396
0-
#6398
1%
#6399
0%
1-
#6400
1#
1+
0-
#6401
0#
0+
#6402
1%
#6403
0%
1-
#6404
0-
#6406
1%
#6407
0%
1-
#6408
0-
#6410
1%
#6411
0%
1-
#6412
0-
#6414
1%
#6415
0%
1-
#6416
0-
#6418
1%
#6419
0%
1-
#6420
0-
#6422
1%
#6423
0%
1-
#6424
0-
#6426
1%
#6427
0%
1-
#6428
0-
#6430
1%
#6431
0%
1-
#6432
0-
#6434
1%
#6435
0%
1-
#6436
0-
#6438
1%
#6439
0%
1-
#6440
0-
#6442
1%
#6443
0%
1-
#6444
0-
#6446
1%
#6447
0%
1-
#6448
0-
#6450
1%
#6451
0%
1-
#6452
0-
#6454
1%
#6455
0%
1-
#6456
0-
#6458
1%
#6459
0%
1-
#6460
0-
#6462
1%
#6463
0%
1-
#6464
1#
1+
0-
#6465
0#
0+
#6466
1%
#6467
0%
1-
#6468
0-
#6470
1%
#6471
0%
1-
#6472
0-
#6474
1%
#6475
0%
1-
#6476
0-
#6478
1%
#6479
0%
1-
#6480
0-
#6482
1%
#6483
0%
1-
#6484
0-
#6486
1%
#6487
0%
1-
#6488
0-
#6490
1%
#6491
0%
1-
#6492
0-
#6494
1%
#6495
0%
1-
#6496
0-
#6498
1%
#6499
0%
1-
#6500
0-
#6502
1%
#6503
0%
1-
#6504
0-
#6506
1%
#6507
0%
1-
#6508
0-
#6510
1%
#6511
0%
1-
#6512
0-
#6514
1%
#6515
0%
1-
#6516
0-
#6518
1%
#6519
0%
1-
#6520
0-
#6522
1%
#6523
0%
1-
#6524
0-
#6526
1%
#6527
0%
1-
#6528
1#
1+
0-
#6529
0#
0+
#6530
1%
#6531
0%
1-
#6532
0-
#6534
1%
#6535
0%
1-
#6536
0-
#6538
1%
#6539
0%
1-
#6540
0-
#6542
1%
#6543
0%
1-
#6544
0-
#6546
1%
#6547
0%
1-
#6548
0-
#6550
1%
#6551
0%
1-
#6552
0-
#6554
1%
#6555
0%
1-
#6556
0-
#6558
1%
#6559
0%
1-
#6560
0-
#6562
1%
#6563
0%
1-
#6564
0-
#6566
1%
#6567
0%
1-
#6568
0-
#6570
1%
#6571
0%
1-
#6572
0-
#6574
1%
#6575
0%
1-
#6576
0-
#6578
1%
#6579
0%
1-
#6580
0-
#6582
1%
#6583
0%
1-
#6584
0-
#6586
1%
#6587
0%
1-
#6588
0-
#6590
1%
#6591
0%
1-
#6592
1#
1+
0-
#6593
0#
0+
#6594
1%
#6595
0%
1-
#6596
0-
#6598
1%
#6599
0%
1-
#6600
0-
#6602
1%
#6603
0%
1-
#6604
0-
#6606
1%
#6607
0%
1-
#6608
0-
#6610
1%
#6611
0%
1-
#6612
0-
#6614
1%
#6615
0%
1-
#6616
0-
#6618
1%
#6619
0%
1-
#6620
0-
#6622
1%
#6623
0%
1-
#6624
0-
#6626
1%
#6627
0%
1-
#6628
0-
#6630
1%
#6631
0%
1-
#6632
0-
#6634
1%
#6635
0%
1-
#6636
0-
#6638
1%
#6639
0%
1-
#6640
0-
#6642
1%
#6643
0%
1-
#6644
0-
#6646
1%
#6647
0%
1-
#6648
0-
#6650
1%
#6651
0%
1-
#6652
0-
#6654
1%
#6655
0%
1-
#6656
1#
1+
0-
#6657
0#
0+
#6658
1%
#6659
0%
1-
#6660
0-
#6662
1%
#6663
0%
1-
#6664
0-
#6666
1%
#6667
0%
1-
#6668
0-
#6670
1%
#6671
0%
1-
#6672
0-
#6674
1%
#6675
0%
1-
#6676
0-
#6678
1%
#6679
0%
1-
#6680
0-
#6682
1%
#6683
0%
1-
#6684
0-
#6686
1%
#6687
0%
1-
#6688
0-
#6690
1%
#6691
0%
1-
#6692
0-
#6694
1%
#6695
0%
1-
#6696
0-
#6698
1%
#6699
0%
1-
#6700
0-
#6702
1%
#6703
0%
1-
#6704
0-
#6706
1%
1'
#6707
0%
0'
1-
#6708
0-
#6710
1%
#6711
0%
1-
#6712
0-
#6714
1%
#6715
0%
1-
#6716
0-
#6718
1%
#6719
0%
1-
#6720
1#
1+
0-
#6721
0#
0+
#6722
1%
#6723
0%
1-
#6724
0-
#6726
1%
#6727
0%
1-
#6728
0-
#6730
1%
#6731
0%
1-
#6732
0-
#6734
1%
#6735
0%
1-
#6736
0-
1/
#6737
0/
#6738
1%
#6739
0%
1-
#6740
0-
#6742
1%
#6743
0%
1-
#6744
1)
0-
#6746
1%
#6747
0%
1-
#6748
0-
#6750
1%
#6751
0%
1-
#6752
0-
#6754
1%
#6755
0%
1-
#6756
0-
#6758
1%
#6759
0%
1-
#6760
0)
0-
#6762
1%
#6763
0%
1-
#6764
0-
#6766
1%
#6767
0%
1-
#6768
0-
#6770
1%
#6771
0%
1-
#6772
0-
#6774
1%
#6775
0%
1-
11
#6776
0-
#6778
1%
#6779
0%
1-
#6780
0-
#6782
1%
#6783
0%
1-
#6784
1#
1+
0-
#6785
0#
0+
#6786
1%
#6787
0%
1-
#6788
0-
#6790
1%
#6791
0%
1-
01
#6792
0-
#6794
1%
#6795
0%
1-
#6796
0-
#6798
1%
#6799
0%
1-
#6800
0-
#6802
1%
#6803
0%
1-
#6804
0-
#6806
1%
#6807
0%
1-
#6808
0-
#6810
1%
#6811
0%
1-
#6812
0-
#6814
1%
#6815
0%
1-
#6816
0-
#6818
1%
#6819
0%
1-
#6820
0-
#6822
1%
#6823
0%
1-
#6824
0-
#6826
1%
#6827
0%
1-
#6828
0-
#6830
1%
#6831
0%
1-
#6832
0-
#6834
1%
#6835
0%
1-
#6836
0-
#6838
1%
#6839
0%
1-
#6840
0-
#6842
1%
#6843
0%
1-
#6844
0-
#6846
1%
#6847
0%
1-
#6848
1#
1+
0-
#6849
0#
0+
#6850
1%
#6851
0%
1-
#6852
0-
#6854
1%
#6855
0%
1-
#6856
0-
#6858
1%
#6859
0%
1-
#6860
0-
#6862
1%
#6863
0%
1-
#6864
0-
#6866
1%
#6867
0%
1-
#6868
0-
#6870
1%
#6871
0%
1-
#6872
0-
#6874
1%
#6875
0%
1-
#6876
0-
#6878
1%
#6879
0%
1-
#6880
0-
#6882
1%
#6883
0%
1-
#6884
0-
#6886
1%
#6887
0%
1-
#6888
0-
#6890
1%
#6891
0%
1-
#6892
0-
#6894
1%
#6895
0%
1-
#6896
0-
#6898
1%
#6899
0%
1-
#6900
0-
#6902
1%
#6903
0%
1-
#6904
0-
#6906
1%
#6907
0%
1-
#6908
0-
#6910
1%
#6911
0%
1-
#6912
1#
1+
0-
#6913
0#
0+
#6914
1%
#6915
0%
1-
#6916
0-
#6918
1%
#6919
0%
1-
#6920
0-
#6922
1%
#6923
0%
1-
#6924
0-
#6926
1%
#6927
0%
1-
#6928
0-
#6930
1%
#6931
0%
1-
#6932
0-
#6934
1%
#6935
0%
1-
#6936
0-
#6938
1%
#6939
0%
1-
#6940
0-
#6942
1%
#6943
0%
1-
#6944
0-
#6946
1%
#6947
0%
1-
#6948
0-
#6950
1%
#6951
0%
1-
#6952
0-
#6954
1%
#6955
0%
1-
#6956
0-
#6958
1%
#6959
0%
1-
#6960
0-
#6962
1%
#6963
0%
1-
#6964
0-
#6966
1%
#6967
0%
1-
#6968
0-
#6970
1%
#6971
0%
1-
#6972
0-
#6974
1%
#6975
0%
1-
#6976
1#
1+
0-
#6977
0#
0+
#6978
1%
#6979
0%
1-
#6980
0-
#6982
1%
#6983
0%
1-
#6984
0-
#6986
1%
#6987
0%
1-
#6988
0-
#6990
1%
#6991
0%
1-
#6992
0-
#6994
1%
#6995
0%
1-
#6996
0-
#6998
1%
#6999
0%
1-
#7000
0-
#7002
1%
#7003
0%
1-
#7004
0-
#7006
1%
#7007
0%
1-
#7008
0-
#7010
1%
#7011
0%
1-
#7012
0-
#7014
1%
#7015
0%
1-
#7016
0-
#7018
1%
#7019
0%
1-
#7020
0-
#7022
1%
#7023
0%
1-
#7024
0-
#7026
1%
#7027
0%
1-
#7028
0-
#7030
1%
#7031
0%
1-
#7032
0-
#7034
1%
#7035
0%
1-
#7036
0-
#7038
1%
#7039
0%
1-
#7040
1#
1+
0-
#7041
0#
0+
#7042
1%
#7043
0%
1-
#7044
0-
#7046
1%
#7047
0%
1-
#7048
0-
#7050
1%
#7051
0%
1-
#7052
0-
#7054
1%
#7055
0%
1-
#7056
0-
#7058
1%
#7059
0%
1-
#7060
0-
#7062
1%
#7063
0%
1-
#7064
0-
#7066
1%
#7067
0%
1-
#7068
0-
#7070
1%
#7071
0%
1-
#7072
0-
#7074
1%
#7075
0%
1-
#7076
0-
#7078
1%
#7079
0%
1-
#7080
0-
#7082
1%
#7083
0%
1-
#7084
0-
#7086
1%
#7087
0%
1-
#7088
0-
#7090
1%
#7091
0%
1-
#7092
0-
#7094
1%
#7095
0%
1-
#7096
0-
#7098
1%
#7099
0%
1-
#7100
0-
#7102
1%
#7103
0%
1-
#7104
1#
1+
0-
#7105
0#
0+
#7106
1%
#7107
0%
1-
#7108
0-
#7110
1%
#7111
0%
1-
#7112
0-
#7114
1%
#7115
0%
1-
#7116
0-
#7118
1%
#7119
0%
1-
#7120
0-
#7122
1%
#7123
0%
1-
#7124
0-
#7126
1%
#7127
0%
1-
#7128
0-
#7130
1%
#7131
0%
1-
#7132
0-
#7134
1%
#7135
0%
1-
#7136
0-
#7138
1%
#7139
0%
1-
#7140
0-
#7142
1%
#7143
0%
1-
#7144
0-
#7146
1%
#7147
0%
1-
#7148
0-
#7150
1%
#7151
0%
1-
#7152
0-
#7154
1%
#7155
0%
1-
#7156
0-
#7158
1%
#7159
0%
1-
#7160
0-
#7162
1%
#7163
0%
1-
#7164
0-
#7166
1%
#7167
0%
1-
#7168
1#
1+
0-
#7169
0#
0+
#7170
1%
#7171
0%
1-
#7172
0-
#7174
1%
#7175
0%
1-
#7176
0-
#7178
1%
#7179
0%
1-
#7180
0-
#7182
1%
#7183
0%
1-
#7184
0-
#7186
1%
#7187
0%
1-
#7188
0-
#7190
1%
#7191
0%
1-
#7192
0-
#7194
1%
#7195
0%
1-
#7196
0-
#7198
1%
#7199
0%
1-
#7200
0-
#7201
1'
#7202
1%
0'
#7203
0%
1-
#7204
0-
#7206
1%
#7207
0%
1-
#7208
0-
#7210
1%
#7211
0%
1-
#7212
0-
#7214
1%
#7215
0%
1-
#7216
0-
#7218
1%
#7219
0%
1-
#7220
0-
#7222
1%
#7223
0%
1-
#7224
0-
#7226
1%
#7227
0%
1-
#7228
0-
